{
  "gdax": {
    "url": "https://api.gdax.com"
  },
  "mail": {
    "enabled": true,
    "from": "Gdax <gdax-alerts@yourmail.com>",
    "to": "default_recipient@yourmail.com",
    "apikey": "{mailgun_apikey}",
    "domain": "{mailgun_domain.mailgun.org}"
  },
  "clients": [
    {
      "email": "vitalik@buterin.com",
      "key": "{gdax_key}",
      "b64secret": "{gdax_base64_secret}",
      "passphrase": "{gdax_passphrase}"
    },
    {
      "email": "satoshi@nakamoto.com",
      "key": "{gdax_key}",
      "b64secret": "{gdax_base64_secret}",
      "passphrase": "{gdax_passphrase}"
    }
  ]
}
